background: linear-gradient(to right,rgba(206, 200, 0, 0.35) 0%,rgba(202, 0, 255, 0.73) 100%);

(206, 200, 0)
(202, 0, 255)



#cebe0e
#ca06f8


warna 2
background: linear-gradient(to right,rgba(56, 255, 145, 0.75) 0%,rgba(0, 0, 0, 0.7) 100%); //hijau item

(90, 229, 134,1)
(0, 0, 0, 0.95)

#5ce586
#1f5206

warna 3
background: linear-gradient(to right,rgba(23, 36, 132, 0.85) 0%,rgba(196, 78, 190, 0.62) 100%);

(13, 16, 132, 0.91) 
(241, 91, 225, 0.84)

#302b94
#f074e5
